…
# Use unnest() and map() to apply read_folder to each subfolder
raw_text <- tibble(folder = dir(training_folder, full.names = TRUE)) %>%
  mutate(folder_out = map(folder, read_folder)) %>%
  unnest(cols = c(folder_out)) %>%
  transmute(newsgroup = basename(folder), id, text)
```




```r
raw_text
#> # A tibble: 511,655 × 3
#>    newsgroup   id    text                                                       
#>    <chr>       <chr> <chr>                                                      
#>  1 alt.atheism 49960 "From: mathew <mathew@mantis.co.uk>"                       
#>  2 alt.atheism 49960 "Subject: Alt.Atheism FAQ: Atheist Resources"              
#>  3 alt.atheism 49960 "Summary: Books, addresses, music -- anything related to a…
#>  4 alt.atheism 49960 "Keywords: FAQ, atheism, books, music, fiction, addresses,…
#>  5 alt.atheism 49960 "Expires: Thu, 29 Apr 1993 11:57:19 GMT"                   
#>  6 alt.atheism 49960 "Distribution: world"                                      
#>  7 alt.atheism 49960 "Organization: Mantis Consultants, Cambridge. UK."         
#>  8 alt.atheism 49960 "Supersedes: <19930301143317@mantis.co.uk>"                
#>  9 alt.atheism 49960 "Lines: 290"                                               
#> 10 alt.atheism 49960 ""                                                         
#> # … with 511,645 more rows
```
…
Every raw text dataset will require different steps for data cleaning, which will often involve some trial-and-error and exploration of unusual cases in the dataset. It's important to notice that this cleaning can be achieved using tidy tools such as dplyr and tidyr.

## Words in newsgroups

Now that we've removed the headers, signatures, and formatting, we can start exploring common words. For starters, we could find the most common words in the entire dataset, or within particular newsgroups.


```r
usenet_words %>%
  count(word, sort = TRUE)
#> # A tibble: 68,137 × 2
#>    word            n
#>    <chr>       <int>
#>  1 people       3655
#>  2 time         2705
#>  3 god          1626
#>  4 system       1595
#>  5 program      1103
#>  6 bit          1097
#>  7 information  1094
#>  8 windows      1088
#>  9 government   1084
#> 10 space        1072
#> # … with 68,127 more rows

words_by_newsgroup <- usenet_words %>%
  count(newsgroup, word, sort = TRUE) %>%
  ungroup()

words_by_newsgroup
#> # A tibble: 173,913 × 3
#>    newsgroup               word          n
#>    <chr>                   <chr>     <int>
#>  1 soc.religion.christian  god         917
#>  2 sci.space               space       840
#>  3 talk.politics.mideast   people      728
#>  4 sci.crypt               key         704
#>  5 comp.os.ms-windows.misc windows     625
#>  6 talk.politics.mideast   armenian    582
#>  7 sci.crypt               db          549
#>  8 talk.politics.mideast   turkish     514
#>  9 rec.autos               car         509
#> 10 talk.politics.mideast   armenians   509
#> # … with 173,903 more rows
```

### Finding tf-idf within newsgroups

We'd expect the newsgroups to differ in terms of topic and content, and therefore for the frequency of words to differ between them. Let's try quantifying this using the tf-idf metric (Chapter \@ref(tfidf)).


```r
tf_idf <- words_by_newsgroup %>%
  bind_tf_idf(word, newsgroup, n) %>%
  arrange(desc(tf_idf))

tf_idf
#> # A tibble: 173,913 × 6
#>    newsgroup                word               n      tf   idf tf_idf
#>    <chr>                    <chr>          <int>   <dbl> <dbl>  <dbl>
#>  1 comp.sys.ibm.pc.hardware scsi             483 0.0176   1.20 0.0212
#>  2 talk.politics.mideast    armenian         582 0.00805  2.30 0.0185
#>  3 rec.motorcycles          bike             324 0.0139   1.20 0.0167
#>  4 talk.politics.mideast    armenians        509 0.00704  2.30 0.0162
#>  5 sci.crypt                encryption       410 0.00816  1.90 0.0155
#>  6 rec.sport.hockey         nhl              157 0.00440  3.00 0.0132
#>  7 talk.politics.misc       stephanopoulos   158 0.00416  3.00 0.0125
#>  8 rec.motorcycles          bikes             97 0.00416  3.00 0.0125
#>  9 rec.sport.hockey         hockey           270 0.00756  1.61 0.0122
#> 10 comp.windows.x           oname            136 0.00354  3.00 0.0106
#> # … with 173,903 more rows
```
…
We see lots of characteristic words specific to a particular newsgroup, such as "wiring" and "circuit" on the sci.electronics topic and "orbit" and "lunar" for the space newsgroup. You could use this same code to explore other newsgroups yourself.



What newsgroups tended to be similar to each other in text content? We could discover this by finding the pairwise correlation of word frequencies within each newsgroup, using the `pairwise_cor()` function from the widyr package (see Chapter \@ref(pairwise-correlation)).


```r
library(widyr)

newsgroup_cors <- words_by_newsgroup %>%
  pairwise_cor(newsgroup, word, n, sort = TRUE)

newsgroup_cors
#> # A tibble: 380 × 3
#>    item1                    item2                    correlation
#>    <chr>                    <chr>                          <dbl>
#>  1 talk.religion.misc       soc.religion.christian         0.835
#>  2 soc.religion.christian   talk.religion.misc             0.835
#>  3 alt.atheism              talk.religion.misc             0.779
#>  4 talk.religion.misc       alt.atheism                    0.779
#>  5 alt.atheism              soc.religion.christian         0.751
#>  6 soc.religion.christian   alt.atheism                    0.751
#>  7 comp.sys.mac.hardware    comp.sys.ibm.pc.hardware       0.680
#>  8 comp.sys.ibm.pc.hardware comp.sys.mac.hardware          0.680
#>  9 rec.sport.baseball       rec.sport.hockey               0.577
#> 10 rec.sport.hockey         rec.sport.baseball             0.577
#> # … with 370 more rows
```
…
What are these contributions?


```r
contributions
#> # A tibble: 1,909 × 3
#>    word      occurences contribution
#>    <chr>          <int>        <dbl>
#>  1 abandon           13          -26
#>  2 abandoned         19          -38
#>  3 abandons           3           -6
#>  4 abduction          2           -4
#>  5 abhor              4          -12
#>  6 abhorred           1           -3
#>  7 abhorrent          2           -6
#>  8 abilities         16           32
#>  9 ability          177          354
#> 10 aboard             8            8
#> # … with 1,899 more rows
```
…
```r
top_sentiment_words <- words_by_newsgroup %>%
  inner_join(get_sentiments("afinn"), by = "word") %>%
  mutate(contribution = value * n / sum(n))
```



We can calculate each word's contribution to each newsgroup's sentiment score, and visualize the strongest contributors from a selection of the groups (Figure \@ref(fig:newsgroupsentiment)).


```r
top_sentiment_words
#> # A tibble: 13,063 × 5
#>    newsgroup              word       n value contribution
#>    <chr>                  <chr>  <int> <dbl>        <dbl>
#>  1 soc.religion.christian god      917     1      0.0144 
#>  2 soc.religion.christian jesus    440     1      0.00692
#>  3 talk.politics.guns     gun      425    -1     -0.00668
#>  4 talk.religion.misc     god      296     1      0.00465
#>  5 alt.atheism            god      268     1      0.00421
#>  6 soc.religion.christian faith    257     1      0.00404
#>  7 talk.religion.misc     jesus    256     1      0.00403
#>  8 talk.politics.mideast  killed   202    -3     -0.00953
#>  9 talk.politics.mideast  war      187    -2     -0.00588
#> 10 soc.religion.christian true     179     2      0.00563
#> # … with 13,053 more rows
```
…
<div class="rmdnote">
<p>As a simple measure to reduce the role of randomness, we filtered out
messages that had fewer than five words that contributed to
sentiment.</p>
</div>

What were the most positive messages?


```r
sentiment_messages %>%
  arrange(desc(sentiment))
#> # A tibble: 3,554 × 4
#>    newsgroup               id     sentiment words
#>    <chr>                   <chr>      <dbl> <int>
#>  1 rec.sport.hockey        53560       3.89    18
#>  2 rec.sport.hockey        53602       3.83    30
#>  3 rec.sport.hockey        53822       3.83     6
#>  4 rec.sport.hockey        53645       3.23    13
#>  5 rec.autos               102768      3.2      5
#>  6 misc.forsale            75965       3        5
#>  7 misc.forsale            76037       3        5
#>  8 rec.sport.baseball      104458      3       11
#>  9 rec.sport.hockey        53571       3        5
#> 10 comp.os.ms-windows.misc 9620        2.86     7
#> # … with 3,544 more rows
```
…
It looks like this message was chosen because it uses the word "winner" many times. How about the most negative message? Turns out it's also from the hockey site, but has a very different attitude.


```r
sentiment_messages %>%
  arrange(sentiment)
#> # A tibble: 3,554 × 4
#>    newsgroup             id     sentiment words
#>    <chr>                 <chr>      <dbl> <int>
#>  1 rec.sport.hockey      53907      -3        6
#>  2 sci.electronics       53899      -3        5
#>  3 talk.politics.mideast 75918      -3        7
#>  4 rec.autos             101627     -2.83     6
#>  5 comp.graphics         37948      -2.8      5
#>  6 comp.windows.x        67204      -2.7     10
#>  7 talk.politics.guns    53362      -2.67     6
#>  8 alt.atheism           51309      -2.6      5
#>  9 comp.sys.mac.hardware 51513      -2.6      5
#> 10 rec.autos             102883     -2.6      5
#> # … with 3,544 more rows
…
